{  "component": "wiagl-components/DemographicForm",
    "n_unanswered_message": "$demographicUnansweredMessage",
    "schema":"$demographicSchema",
    "uiSchema": "$demographicUiSchema",
    "condition": "$demographicCondition",
    "skip":"$demographicSkip"
}