{
    "component": "packs-components/Randomize",
    "seed": "$workerId",
    "states": [
      {
        "personal_before_impersonal": true,
        "impersonal_before_personal": false
      },
      {
        "personal_before_impersonal": false,
        "impersonal_before_personal": true
      }
    ]
  }