{
  "aspects": [
    {
      "code": 0,
      "color": "$color_0",
      "rating": "$rating_0",
      "text": "$text_0"
    },
    {
      "code": 2,
      "color": "$color_2",
      "rating": "$rating_2",
      "text": "$text_2"
    },
    {
      "code": 1,
      "color": "$color_1",
      "rating": "$rating_1",
      "text": "$text_1"
    }
  ],
  "bucket": "$bucket_0",
  "component": "wiagl-components/Tradeoff",
  "should_decrease": "$should_decrease",
  "triple_code": 0,
  "skip": {
    "or": [
      {
        "===" : ["$rating_0_skip", "$skipRatingText"] 
      },{
        "===" : ["$rating_1_skip", "$skipRatingText"] 
      },{
        "===" : ["$rating_2_skip", "$skipRatingText"] 
      },
      {"===" : ["$blockNumber", "29"] 
      },
      {"===" : ["$blockNumber", 29] 
      }
    ] 
  }

}