{
  "aspect": {
    "code": 26,
    "color": "$color_26",
    "rating": "$rating_26",
    "text": "$text_26"
  },
  "bucket": "$bucket_24",
  "component": "wiagl-components/Rating",
  "skip": {
    "===": [
      "$short",
      "true"
    ]
  }
}
