{
    "aspect": {
      "code": 30,
      "color": "$color_30",
      "rating": "$rating_30",
      "text": "$text_30"
    },
    "bucket": "$bucket_30",
    "component": "wiagl-components/Rating",
    "skip": {
      "===": [
        "$short",
        "true"
      ]
    }
  }