{
    "aspect": {
      "code": 32,
      "color": "$color_32",
      "rating": "$rating_32",
      "text": "$text_32"
    },
    "bucket": "$bucket_30",
    "component": "wiagl-components/Rating",
    "skip": {
      "===": [
        "$short",
        "true"
      ]
    }
  }