{
    "aspects": [
      {
        "code": 32,
        "color": "$color_32",
        "rating": "$rating_32",
        "text": "$text_32"
      },
      {
        "code": 31,
        "color": "$color_31",
        "rating": "$rating_31",
        "text": "$text_31"
      },
      {
        "code": 30,
        "color": "$color_30",
        "rating": "$rating_30",
        "text": "$text_30"
      }
    ],
    "bucket": "$bucket_30",
    "component": "wiagl-components/Tradeoff",
    "should_decrease": "$should_decrease",
    "triple_code": 10,
    "skip": {
      "or": [
        {
          "===" : ["$rating_30_skip", "$skipRatingText"] 
        },{
          "===" : ["$rating_31_skip", "$skipRatingText"] 
        },{
          "===" : ["$rating_32_skip", "$skipRatingText"] 
        }, {
          "===": ["$short", "true"]
        },
        {"===" : ["$blockNumber", "29"] 
        },
        {"===" : ["$blockNumber", 29] 
        }
      ] 
    }
  }