{
    "aspect": {
      "code": 35,
      "color": "$color_35",
      "rating": "$rating_35",
      "text": "$text_35"
    },
    "bucket": "$bucket_33",
    "component": "wiagl-components/Rating",
    "skip": {
      "===": [
        "$short",
        "true"
      ]
    }
  }