{
    "aspects": [
      {
        "code": 34,
        "color": "$color_34",
        "rating": "$rating_34",
        "text": "$text_34"
      },
      {
        "code": 33,
        "color": "$color_33",
        "rating": "$rating_33",
        "text": "$text_33"
      },
      {
        "code": 35,
        "color": "$color_35",
        "rating": "$rating_35",
        "text": "$text_35"
      }
    ],
    "bucket": "$bucket_33",
    "component": "wiagl-components/Tradeoff",
    "should_decrease": "$should_decrease",
    "triple_code": 11,
    "skip": {
      "or": [
        {
          "===" : ["$rating_33_skip", "$skipRatingText"] 
        },{
          "===" : ["$rating_34_skip", "$skipRatingText"] 
        },{
          "===" : ["$rating_35_skip", "$skipRatingText"] 
        }, {
          "===": ["$short", "true"]
        },
        {"===" : ["$blockNumber", "29"] 
        },
        {"===" : ["$blockNumber", 29] 
        }
      ] 
    }
  }