{
  "aspects": [
    {
      "code": "$iv_5_a_0_code",
      "image": "$iv_5_a_0_image"
    },
    {
      "code": "$iv_5_a_1_code",
      "image": "$iv_5_a_1_image"
    },
    {
      "code": "$iv_5_a_2_code",
      "image": "$iv_5_a_2_image"
    }
  ],
  "defaults": {
    "color": "$iv_5_color",
    "md": "$iv_5_text"
  },
  "code": "$iv_5_a_0_code",
  "bucket": "$iv_5_bucket",
  "instructions": "$iv_5_preamble_instructions",
  "id":"$iv_5_id",
  "personal":false,
  "component": "wiagl-components/Vignette",
  "override_scale": {"max_point": "Highest level possible", "min_point": "Lowest level possible"},
  "order":6,
  "skip": {
    "or": [
    {
      "!==" : ["$backend_iv_5_seen", true] 
    },
    {
      "==" : ["$backend_skipVignette", true] 
    }
  ] 
  },
  "skip2": {
    "or": [
      {
        "===": [
          "$impersonal_before_personal",
          true
        ]
      },{
        "===": [
          "$calibraionsAfterRatings",
          false
        ]
      }
    ]
  },
  "workerId": "$workerId",
  "name": "bottomlessB"
}