{
    "component": "packs-components/TurkSubmit",
    "source": "## Thank you for completing all of the available HITs! You are a superstar to us!\n\n Please return to MTurk to submit this HIT. No survey code is needed. We will approve your submission and issue your well-earned $15 bonus as soon as we can.\n\nWe really appreciate you participating in our research. Please close this tab now.",
    "workerId": "$workerId",
    "short": "$short"
  }