{
  "component": "packs-components/DisplayText",
  "source": "## All set!\n\nThank you for providing data for our research!\n\nPlease return to MTurk to submit this HIT. No survey code is needed and we will approve your submission as soon as we can.\n\nRemember, if you complete all of the available HITs, you will receive a bonus payment of $15 and it will help us learn a lot more about well-being. We hope you will “go for the gold”!\n\n Please close this tab now. ",
  "workerId": "$workerId",
  "short": "$short",
  "skip": {
        "==": [
          "$qualityControlBottomlessA",
          0
        ]
  }
}